{
  "properties": [
    {
      "name": "rootProject.name",
      "type": "java.lang.String",
      "description": "Description for rootProject.name."
    },
    {
      "name": "org.springframework.boot.autoconfigure.EnableAutoConfiguration",
      "type": "java.lang.String",
      "description": "Description for org.springframework.boot.autoconfigure.EnableAutoConfiguration."
    },
    {
      "name": "Accept",
      "type": "java.lang.String",
      "description": "Description for Accept."
    },
    {
      "name": "Authorization",
      "type": "java.lang.String",
      "description": "Description for Authorization."
    },
    {
      "name": "Content-Type.query",
      "type": "java.lang.String",
      "description": "Description for Content-Type.query."
    },
    {
      "name": "spring.datasource.query",
      "type": "java.lang.String",
      "description": "Description for spring.datasource.query."
    },
    {
      "name": "dadata.client.token",
      "type": "java.lang.String",
      "description": "Description for dadata.client.token."
    },
    {
      "name": "dadata.client.baseUrl",
      "type": "java.lang.String",
      "description": "Description for dadata.client.baseUrl."
    },
    {
      "name": "tomcat",
      "type": "java.lang.String",
      "description": "Description for tomcat."
    }
  ] }